{
  "total": 11,
  "data": [
    {
      "id": 1,
      "address": "120 SHEELIN GROVE BALLYBRACK GLENAGEARY CO. DUBLIN A96 V2T6",
      "lat": 53.248862,
      "lng": -6.12526,
      "sqm": 82,
      "price": 306000,
      "propertyType": "TERRACED",
      "satelliteImage": "http://maps.google.com/maps?t=k&q=loc:53.248862,-6.12526",
      "baths": 1,
      "beds": 1
    },
    {
      "id": 2,
      "address": "155 GLENCAR LAWN BALLYBRACK GLENAGEARY CO. DUBLIN A96 V3H3",
      "lat": 53.247957,
      "lng": -6.126351,
      "sqm": 83,
      "price": 350000,
      "propertyType": "DETACHED",
      "satelliteImage": "http://maps.google.com/maps?t=k&q=loc:53.24795699999999,-6.1263510000000005",
      "baths": 1,
      "beds": 2
    },
    {
      "id": 3,
      "address": "58 ASHLAWN PARK BALLYBRACK GLENAGEARY CO. DUBLIN A96 E0P6",
      "lat": 53.253459,
      "lng": -6.132816,
      "sqm": 80,
      "price": 365000,
      "propertyType": "SEMI-DETACHED",
      "satelliteImage": "http://maps.google.com/maps?t=k&q=loc:53.253459,-6.132816",
      "baths": 1,
      "beds": 2
    },
    {
      "id": 4,
      "address": "23 ASHLAWN PARK BALLYBRACK GLENAGEARY CO. DUBLIN A96 T0H9",
      "lat": 53.253868,
      "lng": -6.131429,
      "sqm": 81,
      "price": 270000,
      "propertyType": "APARTMENT",
      "satelliteImage": "http://maps.google.com/maps?t=k&q=loc:53.253868000000004,-6.131429",
      "baths": 2,
      "beds": 4
    },
    {
      "id": 5,
      "address": "12 PARK ROAD GLENAGEARY HEIGHTS GLENAGEARY CO. DUBLIN A96 P9T4",
      "lat": 53.273675,
      "lng": -6.135827,
      "sqm": 82,
      "price": 380000,
      "propertyType": "APARTMENT",
      "satelliteImage": "http://maps.google.com/maps?t=k&q=loc:53.273675,-6.135827",
      "baths": 2,
      "beds": 4
    },
    {
      "id": 6,
      "address": "45 PINEWOOD BALLYBRACK GLENAGEARY CO. DUBLIN A96 T9N9",
      "lat": 53.254793,
      "lng": -6.130788,
      "sqm": 82,
      "price": 260000,
      "propertyType": "DETACHED",
      "satelliteImage": "http://maps.google.com/maps?t=k&q=loc:53.25479300000001,-6.130788",
      "baths": 1,
      "beds": 1
    },
    {
      "id": 7,
      "address": "21 PINEWOOD BALLYBRACK GLENAGEARY CO. DUBLIN A96 F4E6",
      "lat": 53.255704,
      "lng": -6.131508,
      "sqm": 81,
      "price": 330000,
      "propertyType": "SEMI-DETACHED",
      "satelliteImage": "http://maps.google.com/maps?t=k&q=loc:53.255704,-6.131508",
      "baths": 1,
      "beds": 1
    },
    {
      "id": 8,
      "address": "110 CROMLECH FIELDS BALLYBRACK GLENAGEARY CO. DUBLIN A96 E6W0",
      "lat": 53.245255,
      "lng": -6.123372,
      "sqm": 82,
      "price": 320000,
      "propertyType": "TERRACED",
      "satelliteImage": "http://maps.google.com/maps?t=k&q=loc:53.24525500000001,-6.123372",
      "baths": 1,
      "beds": ""
    },
    {
      "id": 9,
      "address": "3 OAKTON PARK BALLYBRACK GLENAGEARY CO. DUBLIN A96 Y9R2",
      "lat": 53.251618,
      "lng": -6.130808,
      "sqm": 80,
      "price": 349912,
      "propertyType": "TERRACED",
      "satelliteImage": "http://maps.google.com/maps?t=k&q=loc:53.25161800000001,-6.130808",
      "baths": "",
      "beds": 1
    },
    {
      "id": 10,
      "address": "4 OAKTON PARK BALLYBRACK GLENAGEARY CO. DUBLIN A96 F6P2",
      "lat": 53.251589,
      "lng": -6.130885,
      "sqm": 81,
      "price": 349912,
      "propertyType": "TERRACED",
      "satelliteImage": "http://maps.google.com/maps?t=k&q=loc:53.251589,-6.130885",
      "baths": "",
      "beds": ""
    },
    {
      "id": 11,
      "address": "19 RIDGE HILL BALLYBRACK GLENAGEARY CO. DUBLIN A96 N5N2",
      "lat": 53.250752,
      "lng": -6.124195,
      "sqm": 79,
      "price": "",
      "propertyType": "TERRACED",
      "satelliteImage": "http://maps.google.com/maps?t=k&q=loc:53.250752,-6.124194999999999",
      "baths": "",
      "beds": 2
    }
  ]
}
